{
  "dependencies": {
    "appInsights1": {
      "resourceId": "/subscriptions/[parameters('subscriptionId')]/resourceGroups/[parameters('resourceGroup')]/providers/microsoft.insights/components/tkainsights",
      "type": "appInsights.azure",
      "connectionId": "APPINSIGHTS_INSTRUMENTATIONKEY",
      "secretStore": "LocalSecretsFile"
    },
    "mssql1": {
      "resourceId": "/subscriptions/[parameters('subscriptionId')]/resourceGroups/[parameters('resourceGroup')]/providers/Microsoft.Sql/servers/tkadbserver/databases/tkadb",
      "type": "mssql.azure",
      "connectionId": "TKADB",
      "secretStore": "LocalSecretsFile"
    }
  }
}